NCAA Tournament Bracket Modeling - Austin Kingsley's Github Site
…
Fit the model.

log_fit <- 
  bracket_workflow %>% 
  fit(data = bracket_train)

Get predictions from the training data.

trainpredict <- log_fit %>% predict(new_data = bracket_train) %>%
  bind_cols(bracket_train)

trainpredict

## # A tibble: 38,373 x 16
##    .pred_class Season Team  Date       Opponent Outcome Rolling_Mean_Po~
##    <fct>       <chr>  <chr> <date>     <chr>    <fct>              <dbl>
##  1 L           2014-~ Abil~ 2014-11-19 Tulsa    L                   79.6
##  2 L           2014-~ Abil~ 2014-11-22 Duquesne L                   73.0
##  3 L           2014-~ Abil~ 2014-12-04 Sacrame~ W                   70.4
##  4 L           2014-~ Abil~ 2014-12-06 Houston  L                   67.4
##  5 L           2014-~ Abil~ 2014-12-17 Loyola ~ L                   66.7
##  6 W           2014-~ Abil~ 2014-12-22 South C~ W                   66.6
##  7 W           2014-~ Abil~ 2014-12-23 Arkansa~ W                   68.2
##  8 L           2014-~ Abil~ 2014-12-28 Grand C~ L                   70.9
##  9 W           2014-~ Abil~ 2015-01-04 Central~ W                   70.6
## 10 W           2014-~ Abil~ 2015-01-10 Nicholl~ W                   70.9
## # ... with 38,363 more rows, and 9 more variables: Rolling_Mean_PPP <dbl>,
## #   TeamSRS <dbl>, Rolling_Mean_3PPCT <dbl>, Rolling_Mean_FGA <dbl>,
## #   Opponent_Rolling_Mean_Possessions <dbl>, Opponent_Rolling_Mean_PPP <dbl>,
## #   OpponentSRS <dbl>, Opponent_Rolling_Mean_3PPCT <dbl>,
## #   Opponent_Rolling_Mean_FGA <dbl>

Now insert some probabilities and bind them to the predictions we already have.

trainpredict <- log_fit %>% predict(new_data = bracket_train, type="prob") %>%
  bind_cols(trainpredict)

trainpredict

## # A tibble: 38,373 x 18
##    .pred_L .pred_W .pred_class Season Team  Date       Opponent Outcome
##      <dbl>   <dbl> <fct>       <chr>  <chr> <date>     <chr>    <fct>  
##  1   0.926  0.0744 L           2014-~ Abil~ 2014-11-19 Tulsa    L      
##  2   0.963  0.0370 L           2014-~ Abil~ 2014-11-22 Duquesne L      
##  3   0.906  0.0944 L           2014-~ Abil~ 2014-12-04 Sacrame~ W      
##  4   0.922  0.0783 L           2014-~ Abil~ 2014-12-06 Houston  L      
##  5   0.986  0.0141 L           2014-~ Abil~ 2014-12-17 Loyola ~ L      
##  6   0.412  0.588  W           2014-~ Abil~ 2014-12-22 South C~ W      
##  7   0.456  0.544  W           2014-~ Abil~ 2014-12-23 Arkansa~ W      
##  8   0.807  0.193  L           2014-~ Abil~ 2014-12-28 Grand C~ L      
##  9   0.167  0.833  W           2014-~ Abil~ 2015-01-04 Central~ W      
## 10   0.377  0.623  W           2014-~ Abil~ 2015-01-10 Nicholl~ W      
## # ... with 38,363 more rows, and 10 more variables:
## #   Rolling_Mean_Possessions <dbl>, Rolling_Mean_PPP <dbl>, TeamSRS <dbl>,
## #   Rolling_Mean_3PPCT <dbl>, Rolling_Mean_FGA <dbl>,
## #   Opponent_Rolling_Mean_Possessions <dbl>, Opponent_Rolling_Mean_PPP <dbl>,
## #   OpponentSRS <dbl>, Opponent_Rolling_Mean_3PPCT <dbl>,
## #   Opponent_Rolling_Mean_FGA <dbl>
…
